{
	"installed": {
		"client_id": "586025450378-uum22eug721cnt1v78d1nnf7hbjvv31l.apps.googleusercontent.com",
		"project_id": "aqueous-cortex-197318",
		"auth_uri": "https://accounts.google.com/o/oauth2/auth",
		"token_uri": "https://accounts.google.com/o/oauth2/token",
		"auth_provider_x509_cert_url": "https://www.googleapis.com/oauth2/v1/certs",
		"client_secret": "4MliFUe2oo-_GyhHPH09txt5",
		"redirect_uris": [
			"urn:ietf:wg:oauth:2.0:oob",
			"http://localhost"
		]
	}
}